{
  "albums" : {
    "href" : "https://api.spotify.com/v1/search?query=album%3ALord+of+the+Rings&type=album&market=NL&offset=0&limit=20",
    "items" : [ {
      "album_type" : "album",
      "artists" : [ {
        "external_urls" : {
          "spotify" : "https://open.spotify.com/artist/0OcclcP5o8VKH2TRqSY2A7"
        },
        "href" : "https://api.spotify.com/v1/artists/0OcclcP5o8VKH2TRqSY2A7",
        "id" : "0OcclcP5o8VKH2TRqSY2A7",
        "name" : "Howard Shore",
        "type" : "artist",
        "uri" : "spotify:artist:0OcclcP5o8VKH2TRqSY2A7"
      } ],
      "available_markets" : [ "AD", "AR", "AT", "AU", "BE", "BG", "BO", "BR", "CA", "CH", "CL", "CO", "CR", "CY", "CZ", "DE", "DK", "DO", "EC", "EE", "ES", "FI", "FR", "GB", "GR", "GT", "HK", "HN", "HU", "ID", "IE", "IS", "IT", "JP", "LI", "LT", "LU", "LV", "MC", "MT", "MX", "MY", "NI", "NL", "NO", "NZ", "PA", "PE", "PH", "PL", "PT", "PY", "SE", "SG", "SK", "SV", "TR", "TW", "US", "UY" ],
      "external_urls" : {
        "spotify" : "https://open.spotify.com/album/04rz93AqGy9JduzV3K81Dh"
      },
      "href" : "https://api.spotify.com/v1/albums/04rz93AqGy9JduzV3K81Dh",
      "id" : "04rz93AqGy9JduzV3K81Dh",
      "images" : [ {
        "height" : 640,
        "url" : "https://i.scdn.co/image/7bcfc7d27bb7cdb914e5b01fbeea246d91c52938",
        "width" : 640
      }, {
        "height" : 300,
        "url" : "https://i.scdn.co/image/8a4756d520b2c0973de9a6fd67e1c3b16cdc0860",
        "width" : 300
      }, {
        "height" : 64,
        "url" : "https://i.scdn.co/image/b1b6c27bff91023db412f1affb88b2b9b5a5111a",
        "width" : 64
      } ],
      "name" : "The Lord Of The Rings: The Fellowship Of The Ring (Original Motion Picture Soundtrack)",
      "type" : "album",
      "uri" : "spotify:album:04rz93AqGy9JduzV3K81Dh"
    }, {
      "album_type" : "album",
      "artists" : [ {
        "external_urls" : {
          "spotify" : "https://open.spotify.com/artist/0OcclcP5o8VKH2TRqSY2A7"
        },
        "href" : "https://api.spotify.com/v1/artists/0OcclcP5o8VKH2TRqSY2A7",
        "id" : "0OcclcP5o8VKH2TRqSY2A7",
        "name" : "Howard Shore",
        "type" : "artist",
        "uri" : "spotify:artist:0OcclcP5o8VKH2TRqSY2A7"
      } ],
      "available_markets" : [ "AD", "AR", "AT", "AU", "BE", "BG", "BO", "BR", "CA", "CH", "CL", "CO", "CR", "CY", "CZ", "DE", "DK", "DO", "EC", "EE", "ES", "FI", "FR", "GB", "GR", "GT", "HK", "HN", "HU", "ID", "IE", "IS", "IT", "JP", "LI", "LT", "LU", "LV", "MC", "MT", "MX", "MY", "NI", "NL", "NO", "NZ", "PA", "PE", "PH", "PL", "PT", "PY", "SE", "SG", "SK", "SV", "TR", "TW", "US", "UY" ],
      "external_urls" : {
        "spotify" : "https://open.spotify.com/album/1zIoYLpYOq8d4HFzHJ7vc8"
      },
      "href" : "https://api.spotify.com/v1/albums/1zIoYLpYOq8d4HFzHJ7vc8",
      "id" : "1zIoYLpYOq8d4HFzHJ7vc8",
      "images" : [ {
        "height" : 640,
        "url" : "https://i.scdn.co/image/29fc60dc9d2bf7e29dbdc985141a4a45711d5456",
        "width" : 640
      }, {
        "height" : 300,
        "url" : "https://i.scdn.co/image/ef891d3a11e5a79713344e50647d6f1b2f0263ad",
        "width" : 300
      }, {
        "height" : 64,
        "url" : "https://i.scdn.co/image/ff9cc1750653b13b0175bfad6c2794b8923379d7",
        "width" : 64
      } ],
      "name" : "The Lord Of The Rings: The Two Towers (Original Motion Picture Soundtrack)",
      "type" : "album",
      "uri" : "spotify:album:1zIoYLpYOq8d4HFzHJ7vc8"
    }, {
      "album_type" : "album",
      "artists" : [ {
        "external_urls" : {
          "spotify" : "https://open.spotify.com/artist/0OcclcP5o8VKH2TRqSY2A7"
        },
        "href" : "https://api.spotify.com/v1/artists/0OcclcP5o8VKH2TRqSY2A7",
        "id" : "0OcclcP5o8VKH2TRqSY2A7",
        "name" : "Howard Shore",
        "type" : "artist",
        "uri" : "spotify:artist:0OcclcP5o8VKH2TRqSY2A7"
      } ],
      "available_markets" : [ "AD", "AR", "AT", "AU", "BE", "BG", "BO", "BR", "CA", "CH", "CL", "CO", "CR", "CY", "CZ", "DE", "DK", "DO", "EC", "EE", "ES", "FI", "FR", "GB", "GR", "GT", "HK", "HN", "HU", "ID", "IE", "IS", "IT", "JP", "LI", "LT", "LU", "LV", "MC", "MT", "MX", "MY", "NI", "NL", "NO", "NZ", "PA", "PE", "PH", "PL", "PT", "PY", "SE", "SG", "SK", "SV", "TR", "TW", "US", "UY" ],
      "external_urls" : {
        "spotify" : "https://open.spotify.com/album/2Re6RMBEfD8iv1HMxLMdzI"
      },
      "href" : "https://api.spotify.com/v1/albums/2Re6RMBEfD8iv1HMxLMdzI",
      "id" : "2Re6RMBEfD8iv1HMxLMdzI",
      "images" : [ {
        "height" : 640,
        "url" : "https://i.scdn.co/image/e8c099a44f8faa3862433670f6a6b0b63c0c4899",
        "width" : 619
      }, {
        "height" : 300,
        "url" : "https://i.scdn.co/image/781f2e1ce47a8116898a110576a80bf15d9bc1e7",
        "width" : 290
      }, {
        "height" : 64,
        "url" : "https://i.scdn.co/image/62b66ba1701065a142962313bc1eb22b8e18206d",
        "width" : 62
      } ],
      "name" : "The Lord Of The Rings - The Return Of The King - The Complete Recordings (Limited Edition)",
      "type" : "album",
      "uri" : "spotify:album:2Re6RMBEfD8iv1HMxLMdzI"
    }, {
      "album_type" : "album",
      "artists" : [ {
        "external_urls" : {
          "spotify" : "https://open.spotify.com/artist/0LyfQWJT6nXafLPZqxe9Of"
        },
        "href" : "https://api.spotify.com/v1/artists/0LyfQWJT6nXafLPZqxe9Of",
        "id" : "0LyfQWJT6nXafLPZqxe9Of",
        "name" : "Various Artists",
        "type" : "artist",
        "uri" : "spotify:artist:0LyfQWJT6nXafLPZqxe9Of"
      } ],
      "available_markets" : [ "AD", "AT", "AU", "BE", "BG", "CH", "CY", "CZ", "DE", "DK", "EE", "ES", "FI", "FR", "GB", "GR", "HK", "HU", "ID", "IE", "IS", "IT", "JP", "LI", "LT", "LU", "LV", "MC", "MT", "MY", "NL", "NO", "NZ", "PH", "PL", "PT", "SE", "SG", "SK", "TR", "TW" ],
      "external_urls" : {
        "spotify" : "https://open.spotify.com/album/6UJnCdgoLLmJon1IIMCsQ7"
      },
      "href" : "https://api.spotify.com/v1/albums/6UJnCdgoLLmJon1IIMCsQ7",
      "id" : "6UJnCdgoLLmJon1IIMCsQ7",
      "images" : [ {
        "height" : 640,
        "url" : "https://i.scdn.co/image/7e33f2b5536863a785cdab72c2fab76935763a29",
        "width" : 640
      }, {
        "height" : 300,
        "url" : "https://i.scdn.co/image/5c1540fba8be588a3d05642ed3eef724dde31b29",
        "width" : 300
      }, {
        "height" : 64,
        "url" : "https://i.scdn.co/image/bdfb67d31b7cf72cb1d53b6edf25402d7ee4fd13",
        "width" : 64
      } ],
      "name" : "Lord Of The Rings Trilogy",
      "type" : "album",
      "uri" : "spotify:album:6UJnCdgoLLmJon1IIMCsQ7"
    }, {
      "album_type" : "album",
      "artists" : [ {
        "external_urls" : {
          "spotify" : "https://open.spotify.com/artist/0OcclcP5o8VKH2TRqSY2A7"
        },
        "href" : "https://api.spotify.com/v1/artists/0OcclcP5o8VKH2TRqSY2A7",
        "id" : "0OcclcP5o8VKH2TRqSY2A7",
        "name" : "Howard Shore",
        "type" : "artist",
        "uri" : "spotify:artist:0OcclcP5o8VKH2TRqSY2A7"
      } ],
      "available_markets" : [ "AD", "AR", "AT", "AU", "BE", "BG", "BO", "BR", "CA", "CH", "CL", "CO", "CR", "CY", "CZ", "DE", "DK", "DO", "EC", "EE", "ES", "FI", "FR", "GB", "GR", "GT", "HK", "HN", "HU", "ID", "IE", "IS", "IT", "JP", "LI", "LT", "LU", "LV", "MC", "MT", "MX", "MY", "NI", "NL", "NO", "NZ", "PA", "PE", "PH", "PL", "PT", "PY", "SE", "SG", "SK", "SV", "TR", "TW", "US", "UY" ],
      "external_urls" : {
        "spotify" : "https://open.spotify.com/album/38x0H9PdY1fHh8EdfPUXqa"
      },
      "href" : "https://api.spotify.com/v1/albums/38x0H9PdY1fHh8EdfPUXqa",
      "id" : "38x0H9PdY1fHh8EdfPUXqa",
      "images" : [ {
        "height" : 640,
        "url" : "https://i.scdn.co/image/60566252ea0570722aa71253d83683e0f00720c2",
        "width" : 640
      }, {
        "height" : 300,
        "url" : "https://i.scdn.co/image/ec62b98045f20977ec830cbc04fac56defa0b00c",
        "width" : 300
      }, {
        "height" : 64,
        "url" : "https://i.scdn.co/image/af74f794747c49bf4754cbaeb69bc4e8fa97e078",
        "width" : 64
      } ],
      "name" : "Lord Of The Rings 3-The Return Of The King (U.S. Version-Jewelcase)",
      "type" : "album",
      "uri" : "spotify:album:38x0H9PdY1fHh8EdfPUXqa"
    }, {
      "album_type" : "album",
      "artists" : [ {
        "external_urls" : {
          "spotify" : "https://open.spotify.com/artist/7EIbKyiLnEJ1Y074UIUyZJ"
        },
        "href" : "https://api.spotify.com/v1/artists/7EIbKyiLnEJ1Y074UIUyZJ",
        "id" : "7EIbKyiLnEJ1Y074UIUyZJ",
        "name" : "Peter Hollens",
        "type" : "artist",
        "uri" : "spotify:artist:7EIbKyiLnEJ1Y074UIUyZJ"
      } ],
      "available_markets" : [ "AD", "AR", "AT", "AU", "BE", "BG", "BO", "BR", "CA", "CH", "CL", "CO", "CR", "CY", "CZ", "DE", "DK", "DO", "EC", "EE", "ES", "FI", "FR", "GB", "GR", "GT", "HK", "HN", "HU", "ID", "IE", "IS", "IT", "JP", "LI", "LT", "LU", "LV", "MC", "MT", "MX", "MY", "NI", "NL", "NO", "NZ", "PA", "PE", "PH", "PL", "PT", "PY", "SE", "SG", "SK", "SV", "TR", "TW", "US", "UY" ],
      "external_urls" : {
        "spotify" : "https://open.spotify.com/album/7DLdCf2U6zMPSJanUKuNax"
      },
      "href" : "https://api.spotify.com/v1/albums/7DLdCf2U6zMPSJanUKuNax",
      "id" : "7DLdCf2U6zMPSJanUKuNax",
      "images" : [ {
        "height" : 640,
        "url" : "https://i.scdn.co/image/42f42d0f2628c184d1fb5ecdd9b9735a2dbdd972",
        "width" : 640
      }, {
        "height" : 300,
        "url" : "https://i.scdn.co/image/b62f90d28b942c9349e469f39ae71c947e898ad0",
        "width" : 300
      }, {
        "height" : 64,
        "url" : "https://i.scdn.co/image/374782e6afd03752e73867877fda5c9e7421147c",
        "width" : 64
      } ],
      "name" : "Misty Mountains: Songs Inspired by The Hobbit and Lord of the Rings",
      "type" : "album",
      "uri" : "spotify:album:7DLdCf2U6zMPSJanUKuNax"
    }],
    "limit" : 20,
    "next" : "https://api.spotify.com/v1/search?query=album%3ALord+of+the+Rings&type=album&market=NL&offset=20&limit=20",
    "offset" : 0,
    "previous" : null,
    "total" : 76
  }
}
